---
source: tests/btr_integ_tests.rs
expression: err

---
HistoryPullerError(
    GetHistoryError(
        SynchronizeError(
            SchedulerError(
                RequestSynchronizeError(
                    BankClientError(
                        HistoryFetchError(
                            BankError {
                                source: Mcb {
                                    source: HttpError {
                                        source: Response {
                                            status_code: 404,
                                            content: "<!DOCTYPE html>\n<html lang=\"en\">\n<head>\n<meta charset=\"utf-8\">\n<title>Error</title>\n</head>\n<body>\n<pre>Cannot POST /bad/getAccessToken</pre>\n</body>\n</html>\n",
                                        },
                                    },
                                },
                            },
                        ),
                    ),
                ),
            ),
        ),
    ),
)
